1. arista network
2. openvswitch



209.58.166.210

10.22.0.108

>>>>>>>>>>>>>..
arista 
INTERFACE
management1 = eth0


R1
en 
conf t
inter eth 1
channel group 50 mode active
int port-chan 50
sw mode tr
ex


vlan 1
int vl 1
ip add 123.123.123.11/24
no autostate
exit
no spanning-tree vlan-id 1
mlag confi
local-interface vlan 1
peer-address 123.123.123.12
peer-link port-channel 50
domain-id mlag_01
heartbeat-interval 2500
reload-delay 150
exit


inter eth 2
channel group 100 mode active
int port-chan 100
mlag 100
sw mode tr
ex



R2
en 
conf t
inter eth 1
channel group 50 mode active
int port-chan 50
sw mode tr
ex

ex
vlan 1
int vl 1
ip add 123.123.123.12/24
no autostate
exit
no spanning-tree vlan-id 1

mlag confi
local-interface vlan 1
peer-address 123.123.123.11
peer-link port-channel 50
domain-id mlag_01
heartbeat-interval 2500
reload-delay 150
exit

inter eth 2
channel group 100 mode active
int port-chan 100
mlag 100
sw mode tr



R3
en
conf t
int eth 1-2
channel-group 100 mode active
int eth 3
switchport mode acc
ex



????R3NEW
en
conf t
int eth 1-2
channel-group 1 mode active
sw mode tr
ex
int eth 3
sw mod acc
sw acc vl 1
ex
int vl 1
ip addr 10.10.10.13 255.255.255.0
no sh
ex
int eth 3
sw mod acc
sw acc vl 1





















